gram 

gram 

0 : 1,  - 
1 : 2,  - 1, 2,  - 
2 : 3,  - 5,  - 6,  - 7,  - 
3 : 4, 13, 14,  - 
4 : 15,  - 16,  - 
5 : 17, 18, 8, 19, 20, 2, 21, 22, 20, 2, 21,  - 
6 : 23, 18, 8, 19, 20, 2, 21,  - 
7 : 13, 24, 8, 14,  - 
8 : 9,  - 9, 25, 9,  - 
9 : 10,  - 12, 10,  - 9, 26, 10,  - 
10 : 11,  - 10, 27, 11,  - 
11 : 13,  - 28,  - 18, 8, 19,  - 
12 : 29,  - 30,  - 

